Basic epidemiology forecasting methods • epipredict
…
See also the (in progress) Forecasting Book.

Intermediate example

The package comes with some built-in historical data for illustration, but up-to-date versions of this could be downloaded with the {epidatr} package and processed using {epiprocess}.1

library(epipredict)
case_death_rate_subset

#> An `epi_df` object, 20,496 x 4 with metadata:
#> * geo_type  = state
#> * time_type = day
#> * as_of     = 2022-05-31 12:08:25.791826
#> 
#> # A tibble: 20,496 × 4
#>    geo_value time_value case_rate death_rate
#>  * <chr>     <date>         <dbl>      <dbl>
#>  1 ak        2020-12-31      35.9      0.158
#>  2 al        2020-12-31      65.1      0.438
#>  3 ar        2020-12-31      66.0      1.27 
#>  4 as        2020-12-31       0        0    
#>  5 az        2020-12-31      76.8      1.10 
#>  6 ca        2020-12-31      96.0      0.751
#>  7 co        2020-12-31      35.8      0.649
#>  8 ct        2020-12-31      52.1      0.819
#>  9 dc        2020-12-31      31.0      0.601
#> 10 de        2020-12-31      65.2      0.807
#> # ℹ 20,486 more rows
…
#> 2. layer_residual_quantiles()

#> 3. layer_add_forecast_date()

#> 4. layer_add_target_date()

#> 5. layer_threshold()

#> 

The fitted model here involved preprocessing the data to appropriately generate lagged predictors, estimating a linear model with stats::lm() and then postprocessing the results to be meaningful for epidemiological tasks. We can also examine the predictions.

two_week_ahead$predictions

#> # A tibble: 56 × 5
#>    geo_value .pred        .pred_distn forecast_date target_date
#>    <chr>     <dbl>             <dist> <date>        <date>     
#>  1 ak        0.449 quantiles(0.45)[2] 2021-12-31    2022-01-14 
#>  2 al        0.574 quantiles(0.57)[2] 2021-12-31    2022-01-14 
#>  3 ar        0.673 quantiles(0.67)[2] 2021-12-31    2022-01-14 
#>  4 as        0     quantiles(0.12)[2] 2021-12-31    2022-01-14 
#>  5 az        0.679 quantiles(0.68)[2] 2021-12-31    2022-01-14 
#>  6 ca        0.575 quantiles(0.57)[2] 2021-12-31    2022-01-14 
#>  7 co        0.862 quantiles(0.86)[2] 2021-12-31    2022-01-14 
#>  8 ct        1.07  quantiles(1.07)[2] 2021-12-31    2022-01-14 
#>  9 dc        2.12  quantiles(2.12)[2] 2021-12-31    2022-01-14 
#> 10 de        1.09  quantiles(1.09)[2] 2021-12-31    2022-01-14 
#> # ℹ 46 more rows
…
