…
``` r
library(tidyverse)
library(epipredict)
jhu <- case_death_rate_subset
jhu
#> An `epi_df` object, 20,496 x 4 with metadata:
#> * geo_type  = state
#> * time_type = day
#> * as_of     = 2022-05-31 12:08:25
#> 
#> # A tibble: 20,496 × 4
#>    geo_value time_value case_rate death_rate
#>  * <chr>     <date>         <dbl>      <dbl>
#>  1 ak        2020-12-31      35.9      0.158
#>  2 al        2020-12-31      65.1      0.438
#>  3 ar        2020-12-31      66.0      1.27 
#>  4 as        2020-12-31       0        0    
#>  5 az        2020-12-31      76.8      1.10 
#>  6 ca        2020-12-31      96.0      0.751
#>  7 co        2020-12-31      35.8      0.649
#>  8 ct        2020-12-31      52.1      0.819
#>  9 dc        2020-12-31      31.0      0.601
#> 10 de        2020-12-31      65.2      0.807
#> # … with 20,486 more rows
```
…
The fitted model here involved preprocessing the data to appropriately
generate lagged predictors, estimating a linear model with `stats::lm()`
and then postprocessing the results to be meaningful for epidemiological
tasks. We can also examine the predictions.

``` r
two_week_ahead$predictions
#> An `epi_df` object, 56 x 6 with metadata:
#> * geo_type  = state
#> * time_type = day
#> * as_of     = 2022-05-31 12:08:25
#> 
#> # A tibble: 56 × 6
#>    geo_value time_value .pred         .pred_distn forecast_date target_date
#>  * <chr>     <date>     <dbl>              <dist> <date>        <date>     
#>  1 ak        2021-12-31 0.449 [0.05, 0.95]<q-rng> 2021-12-31    2022-01-14 
#>  2 al        2021-12-31 0.574 [0.05, 0.95]<q-rng> 2021-12-31    2022-01-14 
#>  3 ar        2021-12-31 0.673 [0.05, 0.95]<q-rng> 2021-12-31    2022-01-14 
#>  4 as        2021-12-31 0     [0.05, 0.95]<q-rng> 2021-12-31    2022-01-14 
#>  5 az        2021-12-31 0.679 [0.05, 0.95]<q-rng> 2021-12-31    2022-01-14 
#>  6 ca        2021-12-31 0.575 [0.05, 0.95]<q-rng> 2021-12-31    2022-01-14 
#>  7 co        2021-12-31 0.862 [0.05, 0.95]<q-rng> 2021-12-31    2022-01-14 
#>  8 ct        2021-12-31 1.07  [0.05, 0.95]<q-rng> 2021-12-31    2022-01-14 
#>  9 dc        2021-12-31 2.12  [0.05, 0.95]<q-rng> 2021-12-31    2022-01-14 
#> 10 de        2021-12-31 1.09  [0.05, 0.95]<q-rng> 2021-12-31    2022-01-14 
#> # … with 46 more rows
```
…
