Basic epidemiology forecasting methods • epipredict
…
And as a tibble of quantile level-value pairs:

four_week_ahead$predictions |>
  select(-.pred) |>
  pivot_quantiles_longer(.pred_distn) |>
  select(geo_value, forecast_date, target_date, quantile = .pred_distn_quantile_level, value = .pred_distn_value)
#> # A tibble: 20 × 5
#>   geo_value forecast_date target_date quantile  value
#>   <chr>     <date>        <date>         <dbl>  <dbl>
#> 1 ca        2021-08-01    2021-08-29      0.1  0.198 
#> 2 ca        2021-08-01    2021-08-29      0.25 0.285 
#> 3 ca        2021-08-01    2021-08-29      0.5  0.345 
#> 4 ca        2021-08-01    2021-08-29      0.75 0.405 
#> 5 ca        2021-08-01    2021-08-29      0.9  0.491 
#> 6 ma        2021-08-01    2021-08-29      0.1  0.0277
#> # ℹ 14 more rows
…
