…
```
## An `epi_df` object, 183 x 4 with metadata:
## * geo_type  = state
## * time_type = day
## * as_of     = 2022-05-31 12:08:25
## 
## # A tibble: 183 × 4
##    geo_value time_value case_rate death_rate
##  * <chr>     <date>         <dbl>      <dbl>
##  1 ca        2021-11-01      15.6      0.239
##  2 ny        2021-11-01      19.9      0.177
##  3 pa        2021-11-01      30.6      0.535
##  4 ca        2021-11-02      15.5      0.201
##  5 ny        2021-11-02      20.3      0.171
##  6 pa        2021-11-02      30.6      0.531
##  7 ca        2021-11-03      15.4      0.186
##  8 ny        2021-11-03      20.2      0.176
##  9 pa        2021-11-03      30.1      0.574
## 10 ca        2021-11-04      15.7      0.189
## # … with 173 more rows
```
…
```r
# time_value and geo_value are always given roles, any additional "key"
# variables will be given the role="key". Data columns are assigned the role
# "raw" since they are unlikely to be predictors/outcomes by default
r %>% prep() %>% bake(dat)
```

```
## # A tibble: 141 × 14
##    time_value geo_value case_rate death…¹ lag_0…² lag_1…³ lag_2…⁴ lag_3…⁵ lag_7…⁶
##    <date>     <chr>         <dbl>   <dbl>   <dbl>   <dbl>   <dbl>   <dbl>   <dbl>
##  1 2021-11-15 ca             13.0   0.217    13.0    14.0    16.1    15.7    15.6
##  2 2021-11-15 ny             28.5   0.168    28.5    27.5    27.2    26.2    22.0
##  3 2021-11-15 pa             38.9   0.554    38.9    38.9    38.0    37.2    33.6
##  4 2021-11-16 ca             13.2   0.225    13.2    13.0    14.0    16.1    15.7
##  5 2021-11-16 ny             29.1   0.168    29.1    28.5    27.5    27.2    22.9
##  6 2021-11-16 pa             40.8   0.549    40.8    38.9    38.9    38.0    34.0
##  7 2021-11-17 ca             13.3   0.198    13.3    13.2    13.0    14.0    15.5
##  8 2021-11-17 ny             29.8   0.166    29.8    29.1    28.5    27.5    23.7
##  9 2021-11-17 pa             41.6   0.497    41.6    40.8    38.9    38.9    35.3
## 10 2021-11-18 ca             14.5   0.213    14.5    13.3    13.2    13.0    13.3
## # … with 131 more rows, 5 more variables: lag_14_case_rate <dbl>,
## #   lag_0_death_rate <dbl>, lag_7_death_rate <dbl>, lag_14_death_rate <dbl>,
## #   ahead_14_death_rate <dbl>, and abbreviated variable names ¹​death_rate,
## #   ²​lag_0_case_rate, ³​lag_1_case_rate, ⁴​lag_2_case_rate, ⁵​lag_3_case_rate,
## #   ⁶​lag_7_case_rate
```
…
