Custom Epiworkflows • epipredict
…
bake() applies a prepared recipe to a (potentially new)
dataset to create the dataset as handed to the
epi_workflow(). We can inspect newly-created columns by
running bake() on the recipe so far:

four_week_recipe |>
  prep(training_data) |>
  bake(training_data)
#> An `epi_df` object, 800 x 14 with metadata:
#> * geo_type  = state
#> * time_type = day
#> * as_of     = 2023-03-10
#> 
#> # A tibble: 800 × 14
#>   geo_value time_value case_rate death_rate lag_0_case_rate lag_1_case_rate
#> * <chr>     <date>         <dbl>      <dbl>           <dbl>           <dbl>
#> 1 ca        2021-01-14     108.       1.22            108.            111. 
#> 2 ma        2021-01-14      88.7      0.893            88.7            92.0
#> 3 ny        2021-01-14      82.4      0.969            82.4            84.9
#> 4 tx        2021-01-14      74.9      1.05             74.9            75.0
#> 5 ca        2021-01-15     104.       1.21            104.            108. 
#> 6 ma        2021-01-15      83.3      0.908            83.3            88.7
#> # ℹ 794 more rows
#> # ℹ 8 more variables: lag_2_case_rate <dbl>, lag_3_case_rate <dbl>, …
…
Note that if we simply plug the full training_data into
predict() we will still get predictions:

fit_workflow |> predict(training_data)
#> An `epi_df` object, 800 x 6 with metadata:
#> * geo_type  = state
#> * time_type = day
#> * as_of     = 2023-03-10
#> 
#> # A tibble: 800 × 6
#>   geo_value time_value .pred .pred_distn forecast_date target_date
#>   <chr>     <date>     <dbl>   <qtls(5)> <date>        <date>     
#> 1 ca        2021-01-14 0.997     [0.997] 2021-08-01    2021-08-29 
#> 2 ma        2021-01-14 0.835     [0.835] 2021-08-01    2021-08-29 
#> 3 ny        2021-01-14 0.868     [0.868] 2021-08-01    2021-08-29 
#> 4 tx        2021-01-14 0.581     [0.581] 2021-08-01    2021-08-29 
#> 5 ca        2021-01-15 0.869     [0.869] 2021-08-01    2021-08-29 
#> 6 ma        2021-01-15 0.830      [0.83] 2021-08-01    2021-08-29 
#> # ℹ 794 more rows
…
