Get started with `epipredict` • epipredict
…
The forecasting methods in this package are designed to work with
panel time series data in epi_df format as made available
in the epiprocess package. An epi_df is a
collection of one or more time-series indexed by one or more categorical
variables. The {epidatasets}
package makes several pre-compiled example datasets available. Let’s
look at an example epi_df:

covid_case_death_rates
#> An `epi_df` object, 20,496 x 4 with metadata:
#> * geo_type  = state
#> * time_type = day
#> * as_of     = 2023-03-10
#> 
#> # A tibble: 20,496 × 4
#>   geo_value time_value case_rate death_rate
#> * <chr>     <date>         <dbl>      <dbl>
#> 1 ak        2020-12-31      35.9      0.158
#> 2 al        2020-12-31      65.1      0.438
#> 3 ar        2020-12-31      66.0      1.27 
#> 4 as        2020-12-31       0        0    
#> 5 az        2020-12-31      76.8      1.10 
#> 6 ca        2020-12-31      95.9      0.755
#> # ℹ 20,490 more rows
…
grad_employ_subset
#> An `epi_df` object, 1,445 x 7 with metadata:
#> * geo_type  = custom
#> * time_type = integer
#> * other_keys = age_group, edu_qual
#> * as_of     = 2024-09-18
#> 
#> # A tibble: 1,445 × 7
#>   geo_value           age_group      edu_qual        time_value num_graduates
#> * <chr>               <fct>          <fct>                <int>         <dbl>
#> 1 Newfoundland and L… 15 to 34 years Career, techni…       2010           430
#> 2 Newfoundland and L… 35 to 64 years Career, techni…       2010           140
#> 3 Newfoundland and L… 15 to 34 years Career, techni…       2010           630
#> 4 Newfoundland and L… 35 to 64 years Career, techni…       2010           140
#> 5 Newfoundland and L… 15 to 34 years Other career, …       2010            60
#> 6 Newfoundland and L… 35 to 64 years Other career, …       2010            40
#> # ℹ 1,439 more rows
#> # ℹ 2 more variables: med_income_2y <dbl>, med_income_5y <dbl>
…
edu_quals <- c("Undergraduate degree", "Professional degree")
geo_values <- c("Quebec", "British Columbia")

grad_employ <- grad_employ_subset |>
  filter(edu_qual %in% edu_quals, geo_value %in% geo_values)

grad_employ
#> An `epi_df` object, 64 x 7 with metadata:
#> * geo_type  = custom
#> * time_type = integer
#> * other_keys = age_group, edu_qual
#> * as_of     = 2024-09-18
#> 
#> # A tibble: 64 × 7
#>   geo_value        age_group      edu_qual           time_value num_graduates
#>   <chr>            <fct>          <fct>                   <int>         <dbl>
#> 1 Quebec           15 to 34 years Undergraduate deg…       2010         14270
#> 2 Quebec           35 to 64 years Undergraduate deg…       2010          1770
#> 3 Quebec           15 to 34 years Professional degr…       2010          1210
#> 4 Quebec           35 to 64 years Professional degr…       2010            50
#> 5 British Columbia 15 to 34 years Undergraduate deg…       2010          8180
#> 6 British Columbia 35 to 64 years Undergraduate deg…       2010          1100
#> # ℹ 58 more rows
#> # ℹ 2 more variables: med_income_2y <dbl>, med_income_5y <dbl>
…
      ) |>
      arx_forecaster(
        outcome = "death_rate",
        trainer = linear_reg(),
        predictors = c("death_rate"),
        args_list = arx_args_list(
          lags = list(c(0, 7, 14)),
          ahead = 14
        )
      )
  })
all_fits |>
  map(~ pluck(., "predictions")) |>
  list_rbind()
#> # A tibble: 56 × 5
#>   geo_value  .pred .pred_distn forecast_date target_date
#>   <chr>      <dbl>   <qtls(7)> <date>        <date>     
#> 1 ak        0.0787    [0.0787] 2021-08-01    2021-08-15 
#> 2 al        0.206      [0.206] 2021-08-01    2021-08-15 
#> 3 ar        0.275      [0.275] 2021-08-01    2021-08-15 
#> 4 as        0              [0] 2021-08-01    2021-08-15 
#> 5 az        0.121      [0.121] 2021-08-01    2021-08-15 
#> 6 ca        0.0674    [0.0674] 2021-08-01    2021-08-15 
#> # ℹ 50 more rows
…
four_week_ahead has three components: an
epi_workflow, a table of predictions, and a
list of metadata. The table of predictions is a simple
tibble,

four_week_ahead$predictions
#> # A tibble: 56 × 5
#>   geo_value  .pred .pred_distn forecast_date target_date
#>   <chr>      <dbl>   <qtls(5)> <date>        <date>     
#> 1 ak        0.234      [0.234] 2021-08-01    2021-08-29 
#> 2 al        0.290       [0.29] 2021-08-01    2021-08-29 
#> 3 ar        0.482      [0.482] 2021-08-01    2021-08-29 
#> 4 as        0.0190     [0.019] 2021-08-01    2021-08-29 
#> 5 az        0.182      [0.182] 2021-08-01    2021-08-29 
#> 6 ca        0.178      [0.178] 2021-08-01    2021-08-29 
#> # ℹ 50 more rows
…
