Examples of Preprocessing and Models • epipredict
…
p1 <- epi_recipe(ex) %>%
  step_epi_lag(case_rate, lag = c(0, 7, 14)) %>%
  step_epi_lag(death_rate, lag = c(0, 7, 14)) %>%
  step_epi_ahead(death_rate, ahead = 7, role = "outcome") %>%
  step_epi_naomit() %>%
  prep(ex)

b1 <- bake(p1, ex)
b1
#> An `epi_df` object, 17 x 11 with metadata:
#> * geo_type  = state
#> * time_type = day
#> * as_of     = 2023-03-10
#> 
#> # A tibble: 17 × 11
#>   geo_value time_value case_rate death_rate lag_0_case_rate lag_7_case_rate
#> * <chr>     <date>         <dbl>      <dbl>           <dbl>           <dbl>
#> 1 ca        2021-12-15      15.8      0.154            15.8            18.0
#> 2 ca        2021-12-16      16.3      0.155            16.3            17.4
#> 3 ca        2021-12-17      16.8      0.158            16.8            17.3
#> 4 ca        2021-12-18      17.6      0.164            17.6            17.2
#> 5 ca        2021-12-19      19.0      0.165            19.0            16.3
#> 6 ca        2021-12-20      20.6      0.163            20.6            16.0
#> # ℹ 11 more rows
#> # ℹ 5 more variables: lag_14_case_rate <dbl>, lag_0_death_rate <dbl>, …
…
b2 <- bake(p2, ex)
b2
#> An `epi_df` object, 10 x 11 with metadata:
#> * geo_type  = state
#> * time_type = day
#> * as_of     = 2023-03-10
#> 
#> # A tibble: 10 × 11
#>   geo_value time_value case_rate death_rate lag0case_rate lag7case_rate
#> * <chr>     <date>         <dbl>      <dbl>         <dbl>         <dbl>
#> 1 ca        2021-12-15      15.8      0.154          15.8          18.0
#> 2 ca        2021-12-16      16.3      0.155          16.3          17.4
#> 3 ca        2021-12-17      16.8      0.158          16.8          17.3
#> 4 ca        2021-12-18      17.6      0.164          17.6          17.2
#> 5 ca        2021-12-19      19.0      0.165          19.0          16.3
#> 6 ca        2021-12-20      20.6      0.163          20.6          16.0
#> # ℹ 4 more rows
#> # ℹ 5 more variables: lag14case_rate <dbl>, lag0death_rate <dbl>, …
…
