Smooth quantile regression • epipredict
…
Notice that we allow the function user to specify the aheads, degree,
and quantile as they may want to change these parameter values. We also
allow for input of the forecast date as we fixed that at the onset of
this demonstration.

We now can produce smooth quantile regression predictions for our
problem:

smooth_preds <- smooth_fc(edf, fd = fd)

smooth_preds

#> # A tibble: 1,568 × 4
#>    geo_value target_date ahead `0.5`
#>    <chr>     <date>      <int> <dbl>
#>  1 ak        2021-12-01      1 0.323
#>  2 ak        2021-12-02      2 0.347
#>  3 ak        2021-12-03      3 0.369
#>  4 ak        2021-12-04      4 0.389
#>  5 ak        2021-12-05      5 0.407
#>  6 ak        2021-12-06      6 0.422
#>  7 ak        2021-12-07      7 0.436
#>  8 ak        2021-12-08      8 0.448
#>  9 ak        2021-12-09      9 0.458
#> 10 ak        2021-12-10     10 0.465
#> # ℹ 1,558 more rows

Most often, we’re not going to want to limit ourselves to just
predicting the median value as there is uncertainty about the
predictions, so let’s try to predict several different quantiles in
addition to the median:

several_quantiles <- c(.1, .25, .5, .75, .9)
smooth_preds <- smooth_fc(edf, quantiles = several_quantiles, fd = fd)

smooth_preds

#> # A tibble: 1,568 × 8
#>    geo_value target_date ahead `0.1` `0.25` `0.5` `0.75` `0.9`
#>    <chr>     <date>      <int> <dbl>  <dbl> <dbl>  <dbl> <dbl>
#>  1 ak        2021-12-01      1 0.286  0.315 0.323  0.350 0.434
#>  2 ak        2021-12-02      2 0.292  0.331 0.347  0.383 0.474
#>  3 ak        2021-12-03      3 0.298  0.345 0.369  0.414 0.511
#>  4 ak        2021-12-04      4 0.303  0.358 0.389  0.442 0.544
#>  5 ak        2021-12-05      5 0.307  0.369 0.407  0.467 0.575
#>  6 ak        2021-12-06      6 0.310  0.378 0.422  0.490 0.603
#>  7 ak        2021-12-07      7 0.313  0.387 0.436  0.511 0.629
#>  8 ak        2021-12-08      8 0.314  0.393 0.448  0.529 0.651
#>  9 ak        2021-12-09      9 0.315  0.398 0.458  0.544 0.670
#> 10 ak        2021-12-10     10 0.315  0.402 0.465  0.557 0.687
#> # ℹ 1,558 more rows
…
