Using the add/update/remove and adjust functions • epipredict
…
We start with the built-in covid_case_death_rates
dataset that contains JHU daily COVID-19 cases and deaths by state and
take a subset of it from Nov. 1, 2021 to Dec. 31, 2021 for the four
states of Alaska, California, New York, and South Carolina.

jhu <- covid_case_death_rates %>%
  dplyr::filter(time_value >= as.Date("2021-11-01"), geo_value %in% c("ak", "ca", "ny", "sc"))

jhu
#> An `epi_df` object, 244 x 4 with metadata:
#> * geo_type  = state
#> * time_type = day
#> * as_of     = 2022-05-31
#> 
#> # A tibble: 244 × 4
#>   geo_value time_value case_rate death_rate
#> * <chr>     <date>         <dbl>      <dbl>
#> 1 ak        2021-11-01      87.9      0.494
#> 2 ca        2021-11-01      15.6      0.239
#> 3 ny        2021-11-01      19.9      0.177
#> 4 sc        2021-11-01      16.0      0.531
#> 5 ak        2021-11-02      83.2      0.395
#> 6 ca        2021-11-02      15.5      0.201
#> # ℹ 238 more rows
…
