CDC Flatline Forecast Quantiles — layer_cdc_flatline_quantiles • epipredict
…
f <- frosting() %>%
  layer_predict() %>%
  layer_cdc_flatline_quantiles(aheads = c(7, 14, 21, 28), symmetrize = TRUE)

eng <- parsnip::linear_reg() %>% parsnip::set_engine("flatline")

wf <- epi_workflow(r, eng, f) %>% fit(case_death_rate_subset)
preds <- suppressWarnings(predict(wf, new_data = latest)) %>%
  dplyr::select(-time_value) %>%
  dplyr::mutate(forecast_date = forecast_date)
preds
#> # A tibble: 56 × 4
#>    geo_value  .pred .pred_distn_all  forecast_date
#>    <chr>      <dbl> <list>           <date>       
#>  1 ak        0.0395 <tibble [4 × 2]> 2021-12-31   
#>  2 al        0.107  <tibble [4 × 2]> 2021-12-31   
#>  3 ar        0.490  <tibble [4 × 2]> 2021-12-31   
#>  4 as        0      <tibble [4 × 2]> 2021-12-31   
#>  5 az        0.608  <tibble [4 × 2]> 2021-12-31   
#>  6 ca        0.142  <tibble [4 × 2]> 2021-12-31   
#>  7 co        0.485  <tibble [4 × 2]> 2021-12-31   
#>  8 ct        0.333  <tibble [4 × 2]> 2021-12-31   
#>  9 dc        0.0802 <tibble [4 × 2]> 2021-12-31   
#> 10 de        0.217  <tibble [4 × 2]> 2021-12-31   
#> # ℹ 46 more rows
…
