Predict from an epi_workflow — predict-epi_workflow • epipredict
…
wf <- epi_workflow(r, linear_reg()) %>% fit(jhu)

latest <- jhu %>% filter(time_value >= max(time_value) - 14)

preds <- predict(wf, latest) %>%
  filter(!is.na(.pred))

preds
#> An `epi_df` object, 56 x 3 with metadata:
#> * geo_type  = state
#> * time_type = day
#> * as_of     = 2022-05-31 19:08:25
#> 
#> # A tibble: 56 × 3
#>    geo_value time_value     .pred
#>  * <chr>     <date>         <dbl>
#>  1 ak        2021-12-31  0.378   
#>  2 al        2021-12-31  0.280   
#>  3 ar        2021-12-31  0.452   
#>  4 as        2021-12-31 -0.000475
#>  5 az        2021-12-31  0.657   
#>  6 ca        2021-12-31  0.293   
#>  7 co        2021-12-31  0.569   
#>  8 ct        2021-12-31  0.641   
#>  9 dc        2021-12-31  1.02    
#> 10 de        2021-12-31  0.733   
#> # … with 46 more rows
…
