Calculate a growth rate — step_growth_rate • epipredict
…
r %>%
  recipes::prep() %>%
  recipes::bake(case_death_rate_subset)
#> Warning: ! No training data was supplied to `prep()`.
#> ! Unlike a <recipe>, an <epi_recipe> does not
#> ! store the full template data in the object.
#> ! Please supply the training data to the `prep()` function,
#> ! to avoid addtional warning messages.
#> An `epi_df` object, 20,496 x 6 with metadata:
#> * geo_type  = state
#> * time_type = day
#> * as_of     = 2022-05-31 19:08:25.791826
#> 
#> # A tibble: 20,496 × 6
#>    time_value geo_value case_rate death_rate gr_7_rel_change_case_rate
#>  * <date>     <chr>         <dbl>      <dbl>                     <dbl>
#>  1 2020-12-31 ak             35.9      0.158                        NA
#>  2 2020-12-31 al             65.1      0.438                        NA
#>  3 2020-12-31 ar             66.0      1.27                         NA
#>  4 2020-12-31 as              0        0                            NA
#>  5 2020-12-31 az             76.8      1.10                         NA
#>  6 2020-12-31 ca             96.0      0.751                        NA
#>  7 2020-12-31 co             35.8      0.649                        NA
#>  8 2020-12-31 ct             52.1      0.819                        NA
#>  9 2020-12-31 dc             31.0      0.601                        NA
#> 10 2020-12-31 de             65.2      0.807                        NA
#> # ℹ 20,486 more rows
#> # ℹ 1 more variable: gr_7_rel_change_death_rate <dbl>
…
