Calculate a rolling window transformation — step_epi_slide • epipredict
…
library(dplyr)
jhu <- case_death_rate_subset %>%
  filter(time_value >= as.Date("2021-01-01"), geo_value %in% c("ca", "ny"))
rec <- epi_recipe(jhu) %>%
  step_epi_slide(case_rate, death_rate,
    .f = \(x) mean(x, na.rm = TRUE),
    .window_size = 7L
  )
bake(prep(rec, jhu), new_data = NULL)
#> An `epi_df` object, 730 x 6 with metadata:
#> * geo_type  = state
#> * time_type = day
#> * as_of     = 2022-05-31 19:08:25.791826
#> 
#> # A tibble: 730 × 6
#>    geo_value time_value case_rate death_rate epi_slide__.f_case_rate
#>  * <chr>     <date>         <dbl>      <dbl>                   <dbl>
#>  1 ca        2021-01-01      104.      0.850                    104.
#>  2 ca        2021-01-02      103.      0.857                    103.
#>  3 ca        2021-01-03      102.      0.860                    103.
#>  4 ca        2021-01-04      102.      0.911                    103.
#>  5 ca        2021-01-05      101.      0.908                    102.
#>  6 ca        2021-01-06      108.      0.893                    103.
#>  7 ca        2021-01-07      106.      0.941                    104.
#>  8 ca        2021-01-08      106.      1.02                     104.
#>  9 ca        2021-01-09      107.      1.11                     105.
#> 10 ca        2021-01-10      110.      1.22                     106.
#> # ℹ 720 more rows
#> # ℹ 1 more variable: epi_slide__.f_death_rate <dbl>
…
