Add frosting to a workflow — add_frosting • epipredict
…
# Update frosting in a workflow and predict
f2 <- frosting() %>% layer_predict()
wf2 <- wf1 %>% update_frosting(f2)
p2 <- predict(wf2, latest)
p2
#> An `epi_df` object, 108 x 3 with metadata:
#> * geo_type  = state
#> * time_type = day
#> * as_of     = 2022-05-31 19:08:25.791826
#> 
#> # A tibble: 108 × 3
#>    geo_value time_value .pred
#>  * <chr>     <date>     <dbl>
#>  1 ak        2021-12-10    NA
#>  2 ca        2021-12-10    NA
#>  3 ny        2021-12-10    NA
#>  4 ak        2021-12-11    NA
#>  5 ca        2021-12-11    NA
#>  6 ny        2021-12-11    NA
#>  7 ak        2021-12-12    NA
#>  8 ca        2021-12-12    NA
#>  9 ny        2021-12-12    NA
#> 10 ak        2021-12-13    NA
#> # ℹ 98 more rows

# Remove frosting from the workflow and predict
wf3 <- wf2 %>% remove_frosting()
p3 <- predict(wf3, latest)
p3
#> An `epi_df` object, 108 x 3 with metadata:
#> * geo_type  = state
#> * time_type = day
#> * as_of     = 2022-05-31 19:08:25.791826
#> 
#> # A tibble: 108 × 3
#>    geo_value time_value .pred
#>  * <chr>     <date>     <dbl>
#>  1 ak        2021-12-10    NA
#>  2 ca        2021-12-10    NA
#>  3 ny        2021-12-10    NA
#>  4 ak        2021-12-11    NA
#>  5 ca        2021-12-11    NA
#>  6 ny        2021-12-11    NA
#>  7 ak        2021-12-12    NA
#>  8 ca        2021-12-12    NA
#>  9 ny        2021-12-12    NA
#> 10 ak        2021-12-13    NA
#> # ℹ 98 more rows
…
