Format predictions for submission to FluSight forecast Hub — flusight_hub_formatter • epipredict
…
  cdc <- cdc_baseline_forecaster(weekly_deaths, "deaths")
  flusight_hub_formatter(cdc)
  flusight_hub_formatter(cdc, target = "wk inc covid deaths")
  flusight_hub_formatter(cdc, target = paste(horizon, "wk inc covid deaths"))
  flusight_hub_formatter(cdc, target = "wk inc covid deaths", output_type = "quantile")
}
#> # A tibble: 6,440 × 9
#>    reference_date horizon target_end_date location output_type_id value .pred
#>    <date>           <int> <date>          <chr>             <dbl> <dbl> <dbl>
#>  1 2021-12-25           1 2022-01-01      02                0.01   65.2  417.
#>  2 2021-12-25           1 2022-01-01      02                0.025 113.   417.
#>  3 2021-12-25           1 2022-01-01      02                0.05  154.   417.
#>  4 2021-12-25           1 2022-01-01      02                0.1   331.   417.
#>  5 2021-12-25           1 2022-01-01      02                0.15  341.   417.
#>  6 2021-12-25           1 2022-01-01      02                0.2   361.   417.
#>  7 2021-12-25           1 2022-01-01      02                0.25  383.   417.
#>  8 2021-12-25           1 2022-01-01      02                0.3   397.   417.
#>  9 2021-12-25           1 2022-01-01      02                0.35  404.   417.
#> 10 2021-12-25           1 2022-01-01      02                0.4   407.   417.
#> # ℹ 6,430 more rows
#> # ℹ 2 more variables: target <chr>, output_type <chr>
…
