Random quantile forests via grf — grf_quantiles • epipredict
…
ewf <- epi_workflow(rec, spec, frost) %>%
  fit(dat) %>%
  forecast()
ewf %>%
  rename(forecast_date = time_value) %>%
  mutate(target_date = forecast_date + 7L) %>%
  pivot_quantiles_wider(.pred)
#> # A tibble: 56 × 6
#>    geo_value forecast_date target_date `0.25` `0.5` `0.75`
#>    <chr>     <date>        <date>       <dbl> <dbl>  <dbl>
#>  1 ak        2021-12-31    2022-01-07  0.196  0.269  0.420
#>  2 al        2021-12-31    2022-01-07  0.149  0.201  0.301
#>  3 ar        2021-12-31    2022-01-07  0.461  0.507  0.601
#>  4 as        2021-12-31    2022-01-07  0      0      0    
#>  5 az        2021-12-31    2022-01-07  0.481  0.654  0.872
#>  6 ca        2021-12-31    2022-01-07  0.178  0.222  0.262
#>  7 co        2021-12-31    2022-01-07  0.472  0.579  0.709
#>  8 ct        2021-12-31    2022-01-07  0.347  0.420  0.458
#>  9 dc        2021-12-31    2022-01-07  0.0811 0.230  0.419
#> 10 de        2021-12-31    2022-01-07  0.235  0.380  0.530
#> # ℹ 46 more rows
…
