CDC Flatline Forecast Quantiles — layer_cdc_flatline_quantiles • epipredict
…
forecast_date <- max(covid_case_death_rates$time_value)

f <- frosting() %>%
  layer_predict() %>%
  layer_cdc_flatline_quantiles(aheads = c(7, 14, 21, 28), symmetrize = TRUE)

eng <- linear_reg(engine = "flatline")

wf <- epi_workflow(r, eng, f) %>% fit(covid_case_death_rates)
preds <- forecast(wf) %>%
  select(-time_value) %>%
  mutate(forecast_date = forecast_date)
preds
#> # A tibble: 56 × 4
#>    geo_value  .pred .pred_distn_all  forecast_date
#>    <chr>      <dbl> <list>           <date>       
#>  1 ak        0.0395 <tibble [4 × 2]> 2021-12-31   
#>  2 al        0.107  <tibble [4 × 2]> 2021-12-31   
#>  3 ar        0.490  <tibble [4 × 2]> 2021-12-31   
#>  4 as        0      <tibble [4 × 2]> 2021-12-31   
#>  5 az        0.608  <tibble [4 × 2]> 2021-12-31   
#>  6 ca        0.139  <tibble [4 × 2]> 2021-12-31   
#>  7 co        0.551  <tibble [4 × 2]> 2021-12-31   
#>  8 ct        0.333  <tibble [4 × 2]> 2021-12-31   
#>  9 dc        0.0802 <tibble [4 × 2]> 2021-12-31   
#> 10 de        0.217  <tibble [4 × 2]> 2021-12-31   
#> # ℹ 46 more rows
…
