Predict from an epi_workflow — predict-epi_workflow • epipredict
…
wf <- epi_workflow(r, parsnip::linear_reg()) %>% fit(jhu)
latest <- jhu %>% dplyr::filter(time_value >= max(time_value) - 14)

preds <- predict(wf, latest)
preds
#> An `epi_df` object, 56 x 3 with metadata:
#> * geo_type  = state
#> * time_type = day
#> * as_of     = 2023-03-10
#> 
#> # A tibble: 56 × 3
#>    geo_value time_value   .pred
#>    <chr>     <date>       <dbl>
#>  1 ak        2021-12-31 0.362  
#>  2 al        2021-12-31 0.255  
#>  3 ar        2021-12-31 0.431  
#>  4 as        2021-12-31 0.00105
#>  5 az        2021-12-31 0.647  
#>  6 ca        2021-12-31 0.276  
#>  7 co        2021-12-31 0.718  
#>  8 ct        2021-12-31 0.614  
#>  9 dc        2021-12-31 1.00   
#> 10 de        2021-12-31 0.709  
#> # ℹ 46 more rows
…
