Quantile regression — quantile_reg • epipredict
…
    See also

    fit.model_spec(), set_engine()

    Examples

library(quantreg)
#> Loading required package: SparseM
tib <- data.frame(y = rnorm(100), x1 = rnorm(100), x2 = rnorm(100))
rq_spec <- quantile_reg(quantile_levels = c(.2, .8)) %>% set_engine("rq")
ff <- rq_spec %>% fit(y ~ ., data = tib)
predict(ff, new_data = tib)
#> # A tibble: 100 × 1
#>                  .pred
#>                 <dist>
#>  1  quantiles(0.05)[2]
#>  2 quantiles(-0.05)[2]
#>  3   quantiles(0.3)[2]
#>  4 quantiles(-0.41)[2]
#>  5  quantiles(0.21)[2]
#>  6 quantiles(-0.05)[2]
#>  7  quantiles(-0.3)[2]
#>  8 quantiles(-0.25)[2]
#>  9 quantiles(-0.23)[2]
#> 10  quantiles(0.05)[2]
#> # ℹ 90 more rows
…
