Calculate a climatological variable based on the history — step_climate • epipredict
…
r %>%
  prep(covid_case_death_rates) %>%
  bake(new_data = NULL)
#> An `epi_df` object, 20,888 x 6 with metadata:
#> * geo_type  = state
#> * time_type = day
#> * as_of     = 2023-03-10
#> 
#> # A tibble: 20,888 × 6
#>    geo_value time_value case_rate death_rate ahead_7_death_rate
#>  * <chr>     <date>         <dbl>      <dbl>              <dbl>
#>  1 ak        2020-12-24        NA         NA              0.158
#>  2 al        2020-12-24        NA         NA              0.438
#>  3 ar        2020-12-24        NA         NA              1.27 
#>  4 as        2020-12-24        NA         NA              0    
#>  5 az        2020-12-24        NA         NA              1.10 
#>  6 ca        2020-12-24        NA         NA              0.755
#>  7 co        2020-12-24        NA         NA              0.376
#>  8 ct        2020-12-24        NA         NA              0.819
#>  9 dc        2020-12-24        NA         NA              0.601
#> 10 de        2020-12-24        NA         NA              0.912
#> # ℹ 20,878 more rows
#> # ℹ 1 more variable: climate_death_rate <dbl>
…
r %>%
  prep(covid_case_death_rates) %>%
  bake(new_data = NULL)
#> An `epi_df` object, 20,888 x 6 with metadata:
#> * geo_type  = state
#> * time_type = day
#> * as_of     = 2023-03-10
#> 
#> # A tibble: 20,888 × 6
#>    geo_value time_value case_rate death_rate ahead_7_death_rate
#>  * <chr>     <date>         <dbl>      <dbl>              <dbl>
#>  1 ak        2020-12-24        NA         NA              0.158
#>  2 al        2020-12-24        NA         NA              0.438
#>  3 ar        2020-12-24        NA         NA              1.27 
#>  4 as        2020-12-24        NA         NA              0    
#>  5 az        2020-12-24        NA         NA              1.10 
#>  6 ca        2020-12-24        NA         NA              0.755
#>  7 co        2020-12-24        NA         NA              0.376
#>  8 ct        2020-12-24        NA         NA              0.819
#>  9 dc        2020-12-24        NA         NA              0.601
#> 10 de        2020-12-24        NA         NA              0.912
#> # ℹ 20,878 more rows
#> # ℹ 1 more variable: climate_death_rate <dbl>
…
r %>%
  prep(covid_case_death_rates) %>%
  bake(new_data = NULL)
#> An `epi_df` object, 20,888 x 6 with metadata:
#> * geo_type  = state
#> * time_type = day
#> * as_of     = 2023-03-10
#> 
#> # A tibble: 20,888 × 6
#>    geo_value time_value case_rate death_rate climate_death_rate
#>  * <chr>     <date>         <dbl>      <dbl>              <dbl>
#>  1 ak        2020-12-24        NA         NA                 NA
#>  2 al        2020-12-24        NA         NA                 NA
#>  3 ar        2020-12-24        NA         NA                 NA
#>  4 as        2020-12-24        NA         NA                 NA
#>  5 az        2020-12-24        NA         NA                 NA
#>  6 ca        2020-12-24        NA         NA                 NA
#>  7 co        2020-12-24        NA         NA                 NA
#>  8 ct        2020-12-24        NA         NA                 NA
#>  9 dc        2020-12-24        NA         NA                 NA
#> 10 de        2020-12-24        NA         NA                 NA
#> # ℹ 20,878 more rows
#> # ℹ 1 more variable: ahead_7_death_rate <dbl>
…
