Adapt the model to latent data — step_adjust_latency • epipredict
…
toy_recipe %>%
  prep(toy_df) %>%
  bake(toy_df) %>%
  arrange(geo_value, time_value)
#> An `epi_df` object, 21 x 7 with metadata:
#> * geo_type  = state
#> * time_type = day
#> * as_of     = 2015-01-14
#>
#> # A tibble: 21 x 7
#>    geo_value time_value     a     b lag_3_a lag_4_b ahead_1_a
#>  * <chr>     <date>     <dbl> <dbl>   <dbl>   <dbl>     <dbl>
#>  1 ca        2015-01-10    NA    NA      NA      NA       100
#>  2 ca        2015-01-11   100     5      NA      NA       103
#>  3 ca        2015-01-12   103    10      NA      NA        NA
#>  4 ca        2015-01-13    NA    NA      NA      NA        NA
#>  5 ca        2015-01-14    NA    NA     100      NA        NA
#>  6 ca        2015-01-15    NA    NA     103       5        NA
#>  7 ca        2015-01-16    NA    NA      NA      10        NA
#>  8 ca        2015-01-17    NA    NA      NA      NA        NA
#>  9 ca        2015-01-18    NA    NA      NA      NA        NA
#> 10 ca        2015-01-19    NA    NA      NA      NA        NA
#> # i 11 more rows
…
