Calculate a lagged difference — step_lag_difference • epipredict
…
r %>%
  prep(covid_case_death_rates) %>%
  bake(new_data = NULL)
#> An `epi_df` object, 19,712 x 8 with metadata:
#> * geo_type  = state
#> * time_type = day
#> * as_of     = 2023-03-10
#> 
#> # A tibble: 19,712 × 8
#>    geo_value time_value case_rate death_rate lag_diff_7_case_rate
#>  * <chr>     <date>         <dbl>      <dbl>                <dbl>
#>  1 ak        2021-01-14      37.4     0.0988               -4.07 
#>  2 al        2021-01-14      73.6     2.51                 -7.70 
#>  3 ar        2021-01-14      87.7     1.42                -10.3  
#>  4 as        2021-01-14       0       0                     0    
#>  5 az        2021-01-14     124.      2.14                  0.117
#>  6 ca        2021-01-14     108.      1.22                  2.38 
#>  7 co        2021-01-14      31.7     0.354                -9.62 
#>  8 ct        2021-01-14      75.4     1.07                  6.97 
#>  9 dc        2021-01-14      41.5     0.681                 6.07 
#> 10 de        2021-01-14      74.1     0.955                -5.46 
#> # ℹ 19,702 more rows
#> # ℹ 3 more variables: lag_diff_14_case_rate <dbl>, lag_diff_7_death_rate <dbl>,
#> #   lag_diff_14_death_rate <dbl>
…
