Get started with epipredict • epipredict
…
All of the panel data functionality is implemented through
the epi_df data type in the companion {epiprocess}
package. There is much more to see there, but for the moment, it’s
enough to look at a simple one:

jhu <- case_death_rate_subset
jhu
#> An `epi_df` object, 20,496 x 4 with metadata:
#> * geo_type  = state
#> * time_type = day
#> * as_of     = 2022-05-31 19:08:25
#> 
#> # A tibble: 20,496 × 4
#>    geo_value time_value case_rate death_rate
#>  * <chr>     <date>         <dbl>      <dbl>
#>  1 ak        2020-12-31      35.9      0.158
#>  2 al        2020-12-31      65.1      0.438
#>  3 ar        2020-12-31      66.0      1.27 
#>  4 as        2020-12-31       0        0    
#>  5 az        2020-12-31      76.8      1.10 
#>  6 ca        2020-12-31      96.0      0.751
#>  7 co        2020-12-31      35.8      0.649
#>  8 ct        2020-12-31      52.1      0.819
#>  9 dc        2020-12-31      31.0      0.601
#> 10 de        2020-12-31      65.2      0.807
#> # ℹ 20,486 more rows
…
The predictions which is just another epi_df. It
contains the predictions for each location along with additional
columns. By default, these are a 90% predictive interval, the
forecast_date (the date on which the forecast was
putatively made) and the target_date (the date for which
the forecast is being made).

out$predictions
#> An `epi_df` object, 56 x 6 with metadata:
#> * geo_type  = state
#> * time_type = day
#> * as_of     = 2022-05-31 19:08:25
#> 
#> # A tibble: 56 × 6
#>    geo_value time_value  .pred         .pred_distn forecast_date target_date
#>  * <chr>     <date>      <dbl>              <dist> <date>        <date>     
#>  1 ak        2021-12-31 0.355  [0.05, 0.95]<q-rng> 2021-12-31    2022-01-07 
#>  2 al        2021-12-31 0.325  [0.05, 0.95]<q-rng> 2021-12-31    2022-01-07 
#>  3 ar        2021-12-31 0.496  [0.05, 0.95]<q-rng> 2021-12-31    2022-01-07 
#>  4 as        2021-12-31 0.0836 [0.05, 0.95]<q-rng> 2021-12-31    2022-01-07 
#>  5 az        2021-12-31 0.614  [0.05, 0.95]<q-rng> 2021-12-31    2022-01-07 
#>  6 ca        2021-12-31 0.327  [0.05, 0.95]<q-rng> 2021-12-31    2022-01-07 
#>  7 co        2021-12-31 0.567  [0.05, 0.95]<q-rng> 2021-12-31    2022-01-07 
#>  8 ct        2021-12-31 0.544  [0.05, 0.95]<q-rng> 2021-12-31    2022-01-07 
#>  9 dc        2021-12-31 0.831  [0.05, 0.95]<q-rng> 2021-12-31    2022-01-07 
#> 10 de        2021-12-31 0.607  [0.05, 0.95]<q-rng> 2021-12-31    2022-01-07 
#> # ℹ 46 more rows
…
or extract the entire distribution into a “long” epi_df
with tau being the probability and q being the
value associated to that quantile.

out_q$predictions %>% 
  # first create a "nested" list-column
  mutate(.pred_distn = nested_quantiles(.pred_distn)) %>%
  unnest(.pred_distn) # then unnest it
#> An `epi_df` object, 1,288 x 7 with metadata:
#> * geo_type  = state
#> * time_type = day
#> * as_of     = 2022-05-31 19:08:25
#> 
#> # A tibble: 1,288 × 7
#>    geo_value time_value .pred      q   tau forecast_date target_date
#>  * <chr>     <date>     <dbl>  <dbl> <dbl> <date>        <date>     
#>  1 ak        2021-12-31 0.355 0      0.01  2021-12-31    2022-01-07 
#>  2 ak        2021-12-31 0.355 0      0.025 2021-12-31    2022-01-07 
#>  3 ak        2021-12-31 0.355 0.0371 0.05  2021-12-31    2022-01-07 
#>  4 ak        2021-12-31 0.355 0.123  0.1   2021-12-31    2022-01-07 
#>  5 ak        2021-12-31 0.355 0.174  0.15  2021-12-31    2022-01-07 
#>  6 ak        2021-12-31 0.355 0.211  0.2   2021-12-31    2022-01-07 
#>  7 ak        2021-12-31 0.355 0.237  0.25  2021-12-31    2022-01-07 
#>  8 ak        2021-12-31 0.355 0.260  0.3   2021-12-31    2022-01-07 
#>  9 ak        2021-12-31 0.355 0.282  0.35  2021-12-31    2022-01-07 
#> 10 ak        2021-12-31 0.355 0.303  0.4   2021-12-31    2022-01-07 
#> # ℹ 1,278 more rows
…
At predict time, we add this object onto the
epi_workflow and call predict()

test_data <- get_test_data(er, jhu)
ewf %>% add_frosting(f) %>% predict(test_data)
#> An `epi_df` object, 56 x 6 with metadata:
#> * geo_type  = state
#> * time_type = day
#> * as_of     = 2022-05-31 19:08:25
#> 
#> # A tibble: 56 × 6
#>    geo_value time_value  .pred         .pred_distn forecast_date target_date
#>  * <chr>     <date>      <dbl>              <dist> <date>        <date>     
#>  1 ak        2021-12-31 0.355  [0.01, 0.99]<q-rng> 2021-12-31    2022-01-07 
#>  2 al        2021-12-31 0.325  [0.01, 0.99]<q-rng> 2021-12-31    2022-01-07 
#>  3 ar        2021-12-31 0.496  [0.01, 0.99]<q-rng> 2021-12-31    2022-01-07 
#>  4 as        2021-12-31 0.0836 [0.01, 0.99]<q-rng> 2021-12-31    2022-01-07 
#>  5 az        2021-12-31 0.614  [0.01, 0.99]<q-rng> 2021-12-31    2022-01-07 
#>  6 ca        2021-12-31 0.327  [0.01, 0.99]<q-rng> 2021-12-31    2022-01-07 
#>  7 co        2021-12-31 0.567  [0.01, 0.99]<q-rng> 2021-12-31    2022-01-07 
#>  8 ct        2021-12-31 0.544  [0.01, 0.99]<q-rng> 2021-12-31    2022-01-07 
#>  9 dc        2021-12-31 0.831  [0.01, 0.99]<q-rng> 2021-12-31    2022-01-07 
#> 10 de        2021-12-31 0.607  [0.01, 0.99]<q-rng> 2021-12-31    2022-01-07 
#> # ℹ 46 more rows
…
All that really differs from the arx_forecaster() is the
recipe, the test data, and the engine. The
frosting is identical, as is the fitting and predicting
procedure.

preds
#> An `epi_df` object, 56 x 6 with metadata:
#> * geo_type  = state
#> * time_type = day
#> * as_of     = 2022-05-31 19:08:25
#> 
#> # A tibble: 56 × 6
#>    geo_value time_value .pred         .pred_distn forecast_date target_date
#>  * <chr>     <date>     <dbl>              <dist> <date>        <date>     
#>  1 ak        2021-12-31  36.4 [0.05, 0.95]<q-rng> 2021-12-31    2022-01-07 
#>  2 al        2021-12-31  89.9 [0.05, 0.95]<q-rng> 2021-12-31    2022-01-07 
#>  3 ar        2021-12-31  82.6 [0.05, 0.95]<q-rng> 2021-12-31    2022-01-07 
#>  4 as        2021-12-31   0   [0.05, 0.95]<q-rng> 2021-12-31    2022-01-07 
#>  5 az        2021-12-31  58.3 [0.05, 0.95]<q-rng> 2021-12-31    2022-01-07 
#>  6 ca        2021-12-31  84.4 [0.05, 0.95]<q-rng> 2021-12-31    2022-01-07 
#>  7 co        2021-12-31 106.  [0.05, 0.95]<q-rng> 2021-12-31    2022-01-07 
#>  8 ct        2021-12-31 143.  [0.05, 0.95]<q-rng> 2021-12-31    2022-01-07 
#>  9 dc        2021-12-31 295.  [0.05, 0.95]<q-rng> 2021-12-31    2022-01-07 
#> 10 de        2021-12-31 150.  [0.05, 0.95]<q-rng> 2021-12-31    2022-01-07 
#> # ℹ 46 more rows
…
